[
    {
        "title": "Common women: Prostitution and sexuality in Medieval England",
        "author": "Ruth Mazo Karas",
        "name": "Dr Victoria Bateman",
        "image": "./book-covers/book-victoria-1.jpg",
        "link": "https://www.amazon.co.uk/Common-Women-Prostitution-Sexuality-Medieval/dp/0195124987/ref=sr_1_1?keywords=common+women&qid=1579181934&sr=8-1",
        "type": "book",
        "episode": "victoria",
        "tags":["economics"]
      },
      {
        "title": "Greed, lust and gender: A History of Economic Ideas",
        "author": "Nancy Folbre",
        "name": "Dr Victoria Bateman",
        "image": "./book-covers/book-victoria-2.jpg",
        "link": "https://www.amazon.co.uk/Greed-Lust-Gender-History-Economic-ebook/dp/B005PUWTOU/ref=sr_1_1?crid=2AXS8BSP4ILFZ&keywords=greed+lust+and+gender&qid=1579181816&sprefix=greed+lust+an%2Cstripbooks%2C152&sr=8-1",
        "type": "book",
        "episode": "victoria",
        "tags":["economics"]
      },
      {
        "title": "Gender and Economics",
        "author": "Jane Humphries",
        "name": "Dr Victoria Bateman",
        "image": "./book-covers/book-victoria-3.jpg",
        "link": "https://books.google.co.uk/books?id=36MEAQAAIAAJ&q=gender+and+economics&dq=gender+and+economics&hl=en&sa=X&ved=0ahUKEwiVzrHl8obnAhWPh1wKHejADiEQ6AEIKDAA",
        "type": "book",
        "episode": "victoria",
        "tags":["economics"]
      },
      {
        "title": "The Brink",
        "author": "Alison Klayman",
        "name": "Tobias Cremer",
        "image": "./book-covers/book-tobias-1.jpg",
        "link": "https://letterboxd.com/film/the-brink-2019/",
        "type": "film",
        "episode": "tobias",
        "tags":["people"]
      },
      {
        "title": "The Road to Somewhere",
        "author": "David Goodhart",
        "name": "Tobias Cremer",
        "image": "./book-covers/book-tobias-2.jpg",
        "link": "https://www.goodreads.com/en/book/show/32446555",
        "type": "book",
        "episode": "tobias",
        "tags":["sociology"]
      },
      {
        "title": "Is Europe Christian?",
        "author": "Olivier Roy",
        "name": "Tobias Cremer",
        "image": "./book-covers/book-tobias-3.jpg",
        "link": "https://www.goodreads.com/book/show/48715693",
        "type": "book",
        "episode": "tobias",
        "tags":["religion","sociology"]
      },
      {
        "title": "Reasons and Persons",
        "author": "Derek Parfit",
        "name": "Vasileios Kotsidis",
        "image": "./book-covers/book-vas-1.jpg",
        "link": "https://www.goodreads.com/book/show/327051.Reasons_and_Persons?from_search=true&qid=9VDJ9tTkj6&rank=1",
        "type": "book",
        "episode": "vasilis",
        "tags":[]
      },
      {
        "title": "Formal Logic",
        "author": "Richard C. Jeffrey",
        "name": "Vasileios Kotsidis",
        "image": "./book-covers/book-vas-2.jpg",
        "link": "https://www.goodreads.com/book/show/829692.Formal_Logic?from_search=true&qid=44Pc3pDKu6&rank=2",
        "type": "book",
        "episode": "vasilis",
        "tags":["philosophy","maths"]
      },
      {
        "title": "Why Free Will is Real",
        "author": "Christian List",
        "name": "Vasileios Kotsidis",
        "image": "./book-covers/book-vas-3.jpg",
        "link": "https://www.goodreads.com/book/show/42525004-why-free-will-is-real",
        "type": "book",
        "episode": "vasilis",
        "tags":["philosophy"]
      },
      {
        "title": "Improving immunisation coverage in rural India",
        "author": "Banerjee, Duflo, Glennerster, & Kothari",
        "name": "Tads Ciecierski-Holmes",
        "image": "./book-covers/book-tads-1.jpg",
        "link": "https://www.bmj.com/content/340/bmj.c2220",
        "type": "paper",
        "episode": "tads",
        "tags":["economics"]
      },
      {
        "title": "Behavioural Game Theory",
        "author": "Colin Camerer",
        "name": "Tads Ciecierski-Holmes",
        "image": "./book-covers/book-tads-2.jpg",
        "link": "https://www.amazon.co.uk/Behavioral-Game-Theory-Experiments-Interaction/dp/0691090394/ref=sr_1_1?keywords=Behavioural+Game+Theory&qid=1579202944&sr=8-1",
        "type": "book",
        "episode": "tads",
        "tags":["economics","maths"]
      },
      {
        "title": "Medication Adherence",
        "author": "Lawrence, Miller, & Flexner",
        "name": "Tads Ciecierski-Holmes",
        "image": "./book-covers/book-tads-3.jpg",
        "link": "https://accp1.onlinelibrary.wiley.com/doi/abs/10.1002/jcph.862",
        "type": "paper",
        "episode": "tads",
        "tags":["economics"]
      },
      {
        "title": "Drug Addiction: Updating Actions to Habits",
        "author": "Trevor W. Robbins",
        "name": "Kent Berridge",
        "image": "./book-covers/book-kent-2.jpg",
        "link": "https://www.ncbi.nlm.nih.gov/pubmed/16251991",
        "type": "paper",
        "episode": "kent",
        "tags":["psychology"]
      },
      {
        "title": "Compulsion and Choice in Addiction",
        "author": "Kent Berridge and Richard Holton",
        "name": "Kent Berridge",
        "image": "./book-covers/book-kent-1.jpg",
        "link": "https://lsa.umich.edu/psych/research&labs/berridge/publications/2017%20Holton%20&%20Berridge%20Compulsions%20&%20choice%20in%20addiction%20chapt.pdf",
        "type": "paper",
        "episode":  "kent",
        "tags":["psychology","philosophy"]
      },
      {
        "title": "Liking, Wanting and the Incentive-Sensitization Theory of Addiction",
        "author": "Terry Robinson",
        "name": "Kent Berridge",
        "image": "./book-covers/book-kent-3.jpg",
        "link": "https://www.ncbi.nlm.nih.gov/pmc/articles/PMC5171207/",
        "type": "paper",
        "episode":  "kent",
        "tags":["psychology"]
      },
      {
        "title": "Animal Signals",
        "author": "John Maynard Smith",
        "name": "Dan Williams",
        "image": "./book-covers/book-dan-2.jpg",
        "link": "https://www.goodreads.com/book/show/1456011.Animal_Signals",
        "type": "book",
        "episode": "dan",
        "tags":["biology"]
      },
      {
        "title": "Beliefs as Signals",
        "author": "Eric Funkhouser",
        "name": "Dan Williams",
        "image": "./book-covers/book-dan-3.jpg",
        "link": "https://www.tandfonline.com/doi/full/10.1080/09515089.2017.1291929",
        "type": "paper",
        "episode":"dan",
        "tags":["sociology","philosophy"]
      },
      {
        "title": "The Elephant in the Brain",
        "author": "Kevin Simler and Robin Hanson",
        "name": "Dan Williams",
        "image": "./book-covers/book-dan-1.jpg",
        "link": "https://www.goodreads.com/book/show/28820444-the-elephant-in-the-brain?from_search=true&qid=ly841mUDHt&rank=1",
        "type": "book",
        "episode": "dan",
        "tags":["economics"]
      },
      {
        "title": "Market, State and People",
        "author": "Diane Coyle",
        "name": "Diane Coyle",
        "image": "./book-covers/book-diane-1.jpg",
        "link": "https://www.amazon.co.uk/gp/product/0691179263/ref=dbs_a_def_rwt_bibl_vppi_i0",
        "type": "book",
        "episode": "diane",
        "tags":["economics"]
      },
      {
        "title": "The Great Reversal",
        "author": "Thomas Philippon",
        "name": "Diane Coyle",
        "image": "./book-covers/book-diane-2.jpg",
        "link": "https://www.amazon.co.uk/Great-Reversal-Thomas-Philippon/dp/0674237544/ref=sr_1_1?keywords=the+great+reversal&qid=1582302104&s=books&sr=1-1",
        "type": "book",
        "episode":  "diane",
        "tags":["economics","history"]
      },
      {
        "title": "Goliath",
        "author": "Matt Stoller",
        "name": "Diane Coyle",
        "image": "./book-covers/book-diane-3.jpg",
        "link": "https://www.amazon.co.uk/Goliath-100-year-Between-Monopoly-Populism/dp/1508292620",
        "type": "book",
        "episode":  "diane",
        "tags":["economics"]
      },
      {
        "title": "Doing Good Better",
        "author": "William MacAskill",
        "name": "George Rosenfeld",
        "image": "./book-covers/book-george-1.jpg",
        "link": "https://www.goodreads.com/book/show/23398748-doing-good-better?from_search=true&qid=frfMyj9ENv&rank=2",
        "type": "book",
        "episode": "george",
        "tags":["economics","philosophy"]
      },
      {
        "title": "How Change Happens",
        "author": "Cass Sunstein",
        "name": "George Rosenfeld",
        "image": "./book-covers/book-george-2.jpg",
        "link": "https://80000hours.org/podcast/episodes/cass-sunstein-how-change-happens/",
        "type": "book",
        "episode":"george",
        "tags":["sociology"]
      },
      {
        "title": "Thinking, Fast and Slow",
        "author": "Daniel Kahneman",
        "name": "George Rosenfeld",
        "image": "./book-covers/book-george-3.jpg",
        "link": "https://www.goodreads.com/book/show/11468377-thinking-fast-and-slow",
        "type": "book",
        "episode": "george",
        "tags":["psychology"]
      },
      {
        "title": "Replacing Guilt",
        "author": "Nate Soares",
        "name": "Neel Nanda",
        "image": "./book-covers/book-neel-3.jpg",
        "link": "http://mindingourway.com/guilt/",
        "type": "online",
        "episode": "neel",
        "tags":["selfImprovement","psychology"]
      },
      {
        "title": "80,000 Hours Key Idea Series",
        "author": "80,000 Hours",
        "name": "Neel Nanda",
        "image": "./book-covers/book-neel-2.jpg",
        "link": "https://80000hours.org/key-ideas/",
        "type": "online",
        "episode": "neel",
        "tags":["selfImprovement"]
      },
      {
        "title": "CFAR Participant Handbook",
        "author": "Center for Applied Rationality",
        "name": "Neel Nanda",
        "image": "./book-covers/book-neel-1.jpg",
        "link": "https://rationality.org/files/cfar-handbook.pdf",
        "type": "online",
        "episode": "neel",
        "tags":["psychology","selfImprovement"]
      },
      {
        "title": "The Mystery of Capital",
        "author": "Hermando De Soto",
        "name": "Toke Aidt",
        "image": "./book-covers/book-toke-1.jpg",
        "link": "https://www.amazon.co.uk/Mystery-Capital-Hernando-Soto/dp/0552999237",
        "type": "book",
        "episode": "toke",
        "tags":["economics"]
      },
      {
        "title": "The Grabbing Hand",
        "author": "Andrei Shleifer and Robery Vishny",
        "name": "Toke Aidt",
        "image": "./book-covers/book-toke-2.jpg",
        "link": "https://www.amazon.co.uk/Grabbing-Hand-Government-Pathologies-Their/dp/0674358872/ref=sr_1_1?dchild=1&keywords=The+Grabbing+Hand&qid=1587891885&s=books&sr=1-1",
        "type": "book",
        "episode": "toke",
        "tags":["economics"]
      },
      {
        "title": "Why Nations Fail",
        "author": "Daron Acemoglu and James Robinson",
        "name": "Toke Aidt",
        "image": "./book-covers/book-toke-3.jpg",
        "link": "https://www.amazon.co.uk/Why-Nations-Fail-Origins-Prosperity/dp/1846684307/ref=tmm_pap_swatch_0?_encoding=UTF8&qid=1587891922&sr=1-1",
        "type": "book",
        "episode": "toke",
        "tags":["economics","sociology"]
      },
      {
        "title": "Strangers Drowning",
        "author": "Larissa MacFarquhar",
        "name": "Eve McCormick",
        "image": "./book-covers/book-eve-1.jpg",
        "link": "https://www.goodreads.com/book/show/24611937-strangers-drowning",
        "type": "book",
        "episode": "eve",
        "tags":["people","philosophy"]
      },
      {
        "title": "The Precipice",
        "author": "Toby Ord",
        "name": "Eve McCormick",
        "image": "./book-covers/book-eve-2.jpg",
        "link": "https://www.goodreads.com/book/show/50485582-the-precipice",
        "type": "book",
        "episode": "eve",
        "tags":["philosophy"]
      },
      {
        "title": "When is your help special?",
        "author": "Julia Wise",
        "name": "Eve McCormick",
        "image": "./book-covers/book-eve-3.jpg",
        "link": "http://www.givinggladly.com/2012/06/when-is-your-help-special.html",
        "type": "article",
        "episode": "eve",
        "tags":["selfImprovement"]
      },
      {
        "title": "Superforecasting",
        "author": "Philip E. Tetlock & Dan Gardner",
        "name": "Jaime Sevilla",
        "image": "./book-covers/book-jaime-1.jpg",
        "link": "https://www.goodreads.com/book/show/23995360-superforecasting",
        "type": "book",
        "episode": "jaime",
        "tags":["economics"]
      },
      {
        "title": "Understanding Cultural Persistence",
        "author": "Nathan Nunn",
        "name": "Jaime Sevilla",
        "image": "./book-covers/book-jaime-2.jpg",
        "link": "https://econpapers.repec.org/RAS/pnu17.htm",
        "type": "article",
        "episode": "jaime",
        "tags":["economics"]
      },
      {
        "title": "A History of Heterodox Economics",
        "author": "Frederic Lee",
        "name": "Carolina Alves",
        "image": "./book-covers/book-carolina-1.jpg",
        "link": "https://www.goodreads.com/book/show/7248202-a-history-of-heterodox-economics",
        "type": "book",
        "episode": "carolina",
        "tags":["economics"]
      },
      {
        "title": "Postcolonialism Meets Economics",
        "author": "S. Charusheela & Eiman O. Zein-Elabdin",
        "name": "Carolina Alves",
        "image": "./book-covers/book-carolina-2.jpg",
        "link": "https://www.goodreads.com/book/show/5602605-postcolonialism-meets-economics",
        "type": "book",
        "episode": "carolina",
        "tags":["economics"]
      },
      {
        "title": "The Market",
        "author": "Matthew Watson",
        "name": "Carolina Alves",
        "image": "./book-covers/book-carolina-3.jpg",
        "link": "https://www.goodreads.com/book/show/34896701-the-market",
        "type": "book",
        "episode": "carolina",
        "tags":["economics"]
      },
      {
        "title": "Lament for Economics",
        "author": "Barbara Wootton",
        "name": "Carolina Alves",
        "image": "./book-covers/book-carolina-4.jpg",
        "link": "https://www.goodreads.com/book/show/34896701-the-market",
        "type": "book",
        "episode": "carolina",
        "tags":["economics"]
      },
      {
        "title": "The Condemnation of Blackness",
        "author": "Khalil Gibran Muhammad",
        "name": "Jessie Munton",
        "image": "./book-covers/book-jessie-1.jpg",
        "link": "https://www.goodreads.com/book/show/7093931-the-condemnation-of-blackness",
        "type": "book",
        "episode": "jessie",
        "tags":["sociology","history"]
      },
      {
        "title": "Race After Technology",
        "author": "Ruha Benjamin",
        "name": "Jessie Munton",
        "image": "./book-covers/book-jessie-2.jpg",
        "link": "https://www.goodreads.com/book/show/42527493-race-after-technology",
        "type": "book",
        "episode": "jessie",
        "tags":["sociology"]
      },
      {
        "title": "Reasons and Persons",
        "author": "Derek Parfit",
        "name": "Simon Beard",
        "image": "./book-covers/book-simon-1.jpg",
        "link": "https://www.goodreads.com/book/show/327051.Reasons_and_Persons",
        "type": "book",
        "episode": "simon",
        "tags":["philosophy"]
      },
      {
        "title": "The Dark Forest",
        "author": "Liu Cixin",
        "name": "Simon Beard",
        "image": "./book-covers/book-simon-2.jpg",
        "link": "https://www.goodreads.com/book/show/23168817-the-dark-forest",
        "type": "book",
        "episode": "simon",
        "tags":["philosophy","fiction"]
      },
      {
        "title": "Silent Spring",
        "author": "Rachel Carson",
        "name": "Simon Beard",
        "image": "./book-covers/book-simon-3.jpg",
        "link": "http://www.rachelcarson.org/SilentSpring.aspx",
        "type": "book",
        "episode": "simon",
        "tags":["environment"]
      },
      {
        "title": "On What Matters",
        "author": "Derek Parfit",
        "name": "Peter Singer",
        "image": "./book-covers/book-peter-1.jpg",
        "link": "https://www.goodreads.com/book/show/11106683-on-what-matters",
        "type": "book",
        "episode": "peter",
        "tags":["philosophy"]
      },
      {
        "title": "The Methods of Ethics",
        "author": "Henry Sidgwick",
        "name": "Peter Singer",
        "image": "./book-covers/book-peter-2.jpg",
        "link": "https://www.goodreads.com/book/show/851993.The_Methods_of_Ethics",
        "type": "book",
        "episode": "peter",
        "tags":["philosophy"]
      },
      {
        "title": "Introduction to the Economics of Religion",
        "author": "Laurence Iannaccone",
        "name": "Sriya Iyer",
        "image": "./book-covers/book-sriya-1-C.jpg",
        "link": "https://www.jstor.org/stable/2564806",
        "type": "paper",
        "episode": "sriya",
        "tags":["economics", "religion"]
      },
      {
        "title": "The New Economics of Religion",
        "author": "Sriya Iyer",
        "name": "Sriya Iyer",
        "image": "./book-covers/book-sriya-1-D.jpg",
        "link": "https://www.aeaweb.org/articles?id=10.1257/jel.54.2.395",
        "type": "paper",
        "episode": "sriya",
        "tags":["economics", "religion"]
      },
      {
        "title": "The Economics of Religion in India",
        "author": "Sriya Iyer",
        "name": "Sriya Iyer",
        "image": "./book-covers/book-sriya-1-B.jpg",
        "link": "https://www.amazon.co.uk/Economics-Religion-India-Sriya-Iyer/dp/0674979648",
        "type": "paper",
        "episode": "sriya",
        "tags":["economics", "religion"]
      },
      {
        "title": "Islam and Economic Performance",
        "author": "Timur Kuran",
        "name": "Sriya Iyer",
        "image": "./book-covers/book-sriya-1-A.jpg",
        "link": "https://www.aeaweb.org/articles?id=10.1257/jel.20171243",
        "type": "paper",
        "episode": "sriya",
        "tags":["economics", "religion"]
      },
      {
        "title": "Revolt on the Nile",
        "author": "Eric Chanay",
        "name": "Sriya Iyer",
        "image": "./book-covers/book-sriya-3.jpg",
        "link": "https://www.onlinelibrary.wiley.com/doi/10.3982/ECTA10233",
        "type": "book",
        "episode": "sriya",
        "tags":["economics"]
      },
      {
        "title": "Persecution and Toleration",
        "author": "Noel Johnson and Mark Koyama",
        "name": "Sriya Iyer",
        "image": "./book-covers/book-sriya-2.jpg",
        "link": "https://persecutionandtoleration.com/",
        "type": "book",
        "episode": "sriya",
        "tags":["economics", "religion"]
      },
      {
        "title": "Wittgenstein (1993)",
        "author": "Derek Jarman",
        "name": "Nikhil Krishnan",
        "image": "./book-covers/book-nikhil-1.jpg",
        "link": "https://letterboxd.com/film/wittgenstein/",
        "type": "film",
        "episode": "nikhil",
        "tags":["philosophy", "people"]
      },
      {
        "title": "Discussion of Linguistic Philosophy",
        "author": "Bernard Williams and Bryan Magee",
        "name": "Nikhil Krishnan",
        "image": "./book-covers/book-nikhil-2.jpg",
        "link": "https://youtu.be/IVY6t-DaeZw",
        "type": "film",
        "episode": "nikhil",
        "tags":["philosophy"]
      },
      {
        "title": "English Philosophy in the Fifties",
        "author": "Jonathan Rée",
        "name": "Nikhil Krishnan",
        "image": "./book-covers/book-nikhil-3.jpg",
        "link": "https://www.radicalphilosophy.com/article/english-philosophy-in-the-fifties",
        "type": "article",
        "episode": "nikhil",
        "tags":["philosophy", "history"]
      },
      {
        "title": "The ACE Blog",
        "author": "Animal Charity Evaluators",
        "name": "Leah Edgerton",
        "image": "./book-covers/book-ace-1.jpg",
        "link": "https://animalcharityevaluators.org/blog/",
        "type": "online",
        "episode": "ace",
        "tags":["animals"]
      },
      {
        "title": "Vox's Future Perfect Podcast",
        "author": "Vox",
        "name": "Leah Edgerton",
        "image": "./book-covers/book-ace-2.jpg",
        "link": "https://www.vox.com/future-perfect-podcast",
        "type": "audio",
        "episode": "ace",
        "tags":["animals","environment","economics"]
      },
      {
        "title": "Farm Animal Welfare Newsletter",
        "author": "Open Philanthropy",
        "name": "Leah Edgerton",
        "image": "./book-covers/book-ace-3.jpg",
        "link": "https://www.openphilanthropy.org/farm-animal-welfare-newsletter-archive",
        "type": "online",
        "episode": "ace",
        "tags":["animals"]
      },
      {
        "title": "Clean Meat",
        "author": "Paul Shapiro",
        "name": "Bruce Friedrich",
        "image": "./book-covers/book-bruce-1.jpg",
        "link": "https://www.notion.so/hearthisidea/Bruce-Friedrich-726c9efe04e64bbfa1da16ca9d551d7d#7f89cbec3d72424bb36f3089caea9881",
        "type": "book",
        "episode": "bruce",
        "tags":["animals","economics"]
      },
      {
        "title": "Enlightenment Now",
        "author": "Steven Pinker",
        "name": "Bruce Friedrich",
        "image": "./book-covers/book-bruce-2.jpg",
        "link": "https://www.goodreads.com/book/show/35696171-enlightenment-now",
        "type": "book",
        "episode": "bruce",
        "tags":["philosophy","sociology","history"]
      },
      {
        "title": "Sapiens",
        "author": "Yuval Noah Harari",
        "name": "Bruce Friedrich",
        "image": "./book-covers/book-bruce-3.jpg",
        "link": "https://www.goodreads.com/book/show/23692271-sapiens",
        "type": "book",
        "episode": "bruce",
        "tags":["history","philosophy","sociology"]
      },
      {
        "title": "Homo Deus",
        "author": "Yuval Noah Harari",
        "name": "Bruce Friedrich",
        "image": "./book-covers/book-bruce-4.jpg",
        "link": "https://www.goodreads.com/book/show/31138556-homo-deus",
        "type": "book",
        "episode": "bruce",
        "tags":["history","philosophy","sociology"]
      },
      {
        "title": "The Great Silence",
        "author": "Milan M. Ćirković",
        "name": "Thomas Moynihan",
        "image": "./book-covers/book-tom-1.jpg",
        "link": "https://www.goodreads.com/en/book/show/36794252",
        "type": "book",
        "episode": "tom",
        "tags":["philosophy"]
      },
      {
        "title": "Reforging the Great Chain of Being",
        "author": "Simo Knuuttila",
        "name": "Thomas Moynihan",
        "image": "./book-covers/book-tom-2.jpg",
        "link": "https://link.springer.com/book/10.1007/978-94-015-7662-8",
        "type": "book",
        "episode": "tom",
        "tags":["history","philosophy"]
      },
      {
        "title": "The World, the Flesh & the Devil",
        "author": "J.D. Bernal",
        "name": "Thomas Moynihan",
        "image": "./book-covers/book-tom-3.jpg",
        "link": "https://www.goodreads.com/book/show/564107.The_World_the_Flesh_the_Devil",
        "type": "book",
        "episode": "tom",
        "tags":["philosophy","sociology"]
      },
      {
        "title": "How to Create a Vegan World",
        "author": "Tobias Leenaert",
        "name": "Sebastian Joy",
        "image": "./book-covers/book-sebastian-1.jpg",
        "link": "https://www.goodreads.com/book/show/35468340-how-to-create-a-vegan-world",
        "type": "book",
        "episode": "sebastian",
        "tags":["animals"]
      },
      {
        "title": "The Lean Startup",
        "author": "Eric Ries",
        "name": "Sebastian Joy",
        "image": "./book-covers/book-sebastian-2.jpg",
        "link": "https://www.goodreads.com/book/show/10127019-the-lean-startup",
        "type": "book",
        "episode": "sebastian",
        "tags":["selfImprovement"]
      },
      {
        "title": "Leaders Eat Last",
        "author": "Simon Sinek",
        "name": "Sebastian Joy",
        "image": "./book-covers/book-sebastian-3.jpg",
        "link": "https://www.goodreads.com/book/show/16144853-leaders-eat-last",
        "type": "book",
        "episode": "sebastian",
        "tags":["selfImprovement"]
      },
      {
        "title": "Animal Liberation",
        "author": "Peter Singer",
        "name": "Marcus Daniell",
        "image": "./book-covers/book-marcus-1.jpg",
        "link": "https://www.goodreads.com/book/show/29380.Animal_Liberation",
        "type": "book",
        "episode": "marcus",
        "tags":["animals", "philosophy"]
      },
      {
        "title": "Meditations",
        "author": "Marcus Aurelius",
        "name": "Marcus Daniell",
        "image": "./book-covers/book-marcus-2.jpg",
        "link": "https://www.goodreads.com/book/show/30659.Meditations",
        "type": "book",
        "episode": "marcus",
        "tags":["selfImprovement", "philosophy"]
      },
      {
        "title": "Moral letters to Lucilius",
        "author": "Seneca",
        "name": "Marcus Daniell",
        "image": "./book-covers/book-marcus-3.jpg",
        "link": "https://www.goodreads.com/book/show/46257635-moral-letters-to-lucilius",
        "type": "book",
        "episode": "marcus",
        "tags":["selfImprovement","philosophy"]
      },
      {
        "title": "Mindful Economics",
        "author": "Roland Bénabou and Jean Tirole",
        "name": "Julia Schvets",
        "image": "./book-covers/book-julia-1.jpg",
        "link": "https://scholar.princeton.edu/sites/default/files/rbenabou/files/mindful_economics_jep_2016.pdf",
        "type": "paper",
        "episode": "julia",
        "tags":["psychology","economics"]
      },
      {
        "title": "Psychology and Economics: Evidence from the Field",
        "author": "Stefano DellaVigna",
        "name": "Julia Schvets",
        "image": "./book-covers/book-julia-2.jpg",
        "link": "https://www.aeaweb.org/articles?id=10.1257/jel.47.2.315",
        "type": "paper",
        "episode": "julia",
        "tags":["psychology","economics"]
      },
      {
        "title": "Crime and Punishment",
        "author": "Fyodor Dostoyevsky",
        "name": "Julia Schvets",
        "image": "./book-covers/book-julia-3.jpg",
        "link": "https://www.goodreads.com/book/show/7144.Crime_and_Punishment",
        "type": "book",
        "episode": "julia",
        "tags":["fiction"]
      },
      {
        "title": "Capital in the Twenty-First Century",
        "author": "Thomas Piketty",
        "name": "Eva Vivalt",
        "image": "./book-covers/book-eva-2.jpg",
        "link": "https://www.goodreads.com/book/show/18736925-capital-in-the-twenty-first-century",
        "type": "book",
        "episode": "eva",
        "tags":["economics"]
      },
      {
        "title": "Bayesian Data Analysis",
        "author": "Andrew Gellman",
        "name": "Eva Vivalt",
        "image": "./book-covers/book-eva-1.jpg",
        "link": "https://www.goodreads.com/book/show/619590.Bayesian_Data_Analysis",
        "type": "book",
        "episode": "eva",
        "tags":["economics"]
      },
      {
        "title": "The Pursuit of Unhappiness: The Elusive Psychology of Well-Being",
        "author": "Daniel M. Haybron",
        "name": "Anna Alexandrova",
        "image": "./book-covers/book-anna-1.jpg",
        "link": "https://www.goodreads.com/book/show/4948737-the-pursuit-of-unhappiness",
        "type": "book",
        "episode": "anna",
        "tags":["psychology"]
      },
      {
        "title": "Hunting Causes and Using Them",
        "author": "Andrew Gellman",
        "name": "Anna Alexandrova",
        "image": "./book-covers/book-anna-2.jpg",
        "link": "https://www.goodreads.com/book/show/552618.Hunting_Causes_and_Using_Them",
        "type": "book",
        "episode": "anna",
        "tags":["philosophy"]
      },
      {
        "title": "Uses of Value Judgments in Science",
        "author": "Elizabeth Anderson",
        "name": "Anna Alexandrova",
        "image": "./book-covers/book-anna-3.jpg",
        "link": "http://web.mit.edu/~sgrp/2006/no1/AndersonUVJS.pdf",
        "type": "paper",
        "episode": "anna",
        "tags":["philosophy"]
      },
      {
        "title": "Are Ideas Getting Harder to Find?",
        "author": "Nicholas Bloom et al.",
        "name": "Phil Trammell",
        "image": "./book-covers/book-phil-1.jpg",
        "link": "https://www.aeaweb.org/articles?id=10.1257/aer.20180338",
        "type": "paper",
        "episode": "phil",
        "tags":["economics"]
      },
      {
        "title": "Introduction to Modern Economic Growth",
        "author": "Daron Acemoğlu",
        "name": "Phil Trammell",
        "image": "./book-covers/book-phil-2.jpg",
        "link": "https://www.goodreads.com/book/show/6766763-introduction-to-modern-economic-growth",
        "type": "book",
        "episode": "phil",
        "tags":["economics"]
      },
      {
        "title": "Are We Approaching an Economic Singularity?",
        "author": "William D. Nordhaus",
        "name": "Phil Trammell",
        "image": "./book-covers/book-phil-3.jpg",
        "link": "https://www.nber.org/system/files/working_papers/w21547/w21547.pdf",
        "type": "paper",
        "episode": "phil",
        "tags":["economics"]
      },
      {
        "title": "The Greatest Show on Earth",
        "author": "Richard Dawkins",
        "name": "Isabelle Boemeke",
        "image": "./book-covers/book-isabelle-1.jpg",
        "link": "https://www.goodreads.com/book/show/6117055-the-greatest-show-on-earth",
        "type": "book",
        "episode": "isabelle",
        "tags":["animals"]
      },
      {
        "title": "Our Inner Ape",
        "author": "Frans de Waal",
        "name": "Isabelle Boemeke",
        "image": "./book-covers/book-isabelle-2.jpg",
        "link": "https://www.goodreads.com/book/show/257106.Our_Inner_Ape",
        "type": "book",
        "episode": "isabelle",
        "tags":["animals"]
      },
      {
        "title": "The Beginning of Infinity",
        "author": "David Deutsch",
        "name": "Isabelle Boemeke",
        "image": "./book-covers/book-isabelle-3.jpg",
        "link": "https://www.goodreads.com/book/show/10483171-the-beginning-of-infinity",
        "type": "book",
        "episode": "isabelle",
        "tags":["philosophy"]
      },
      {
        "title": "How to Avoid a Climate Disaster",
        "author": "Bill Gates",
        "name": "Armond Cohen",
        "image": "./book-covers/book-armond-1.jpg",
        "link": "https://www.goodreads.com/book/show/52275335-how-to-avoid-a-climate-disaster",
        "type": "book",
        "episode": "armond",
        "tags":["environment"]
      },
      {
        "title": "A Bright Future",
        "author": "Joshua S. Goldstein and Staffan A. Qvist",
        "name": "Armond Cohen",
        "image": "./book-covers/book-armond-2.jpg",
        "link": "http://www.brightfuturebook.com/",
        "type": "book",
        "episode": "armond",
        "tags":["environment"]
      },
      {
        "title": "Michael Cembalest's Annual Energy Paper",
        "author": "Michael Cembalest",
        "name": "Armond Cohen",
        "image": "./book-covers/book-armond-3.jpg",
        "link": "https://privatebank.jpmorgan.com/gl/en/insights/investing/eotm/annual-energy-paper",
        "type": "paper",
        "episode": "armond",
        "tags":["environment"]
      },
      {
        "title": "Energy Transitions: History, Requirements, Prospects",
        "author": "Vaclav Smil",
        "name": "Armond Cohen",
        "image": "./book-covers/book-armond-4.jpg",
        "link": "https://www.goodreads.com/book/show/8110056-energy-transitions",
        "type": "book",
        "episode": "armond",
        "tags":["environment"]
      },
      {
        "title": "Sustainable Energy – without the hot air",
        "author": "David MacKay",
        "name": "Armond Cohen",
        "image": "./book-covers/book-armond-5.jpg",
        "link": "https://www.withouthotair.com/",
        "type": "book",
        "episode": "armond",
        "tags":["environment"]
      },
      {
        "title": "Energy Challenge Report",
        "author": "Matthew Ives, Luca Righetti et al.",
        "name": "Matt Ives",
        "image": "./book-covers/book-matt-1.jpg",
        "link": "https://site.energychallenge.info/",
        "type": "paper",
        "episode": "matt",
        "tags":["environment", "economics"]
      },
      {
        "title": "The Complexity Economics Revolution",
        "author": "J. Doyne Farmer",
        "name": "Matt Ives",
        "image": "./book-covers/book-matt-2.jpg",
        "link": "https://static1.squarespace.com/static/54afc2eae4b0fb47dcb12dd5/t/60cb24cb4bcca0585fe38f3d/1623925964305/complexity+economics+revolution+intro+June+12+2021.pdf",
        "type": "book",
        "episode": "matt",
        "tags":["economics"]
      },
      {
        "title": "Thinking in Systems: A Primer",
        "author": "Donella H. Meadows and Diana Wright",
        "name": "Matt Ives",
        "image": "./book-covers/book-matt-3.jpg",
        "link": "https://www.goodreads.com/book/show/3828902-thinking-in-systems",
        "type": "book",
        "episode": "matt",
        "tags":["economics"]
      },
      {
        "title": "Journal of Controversial Ideas",
        "author": "McMahan, Minerva, and Singer (eds.)",
        "name": "Francesca Minerva",
        "image": "./book-covers/book-francesca-1.jpg",
        "link": "https://journalofcontroversialideas.org/",
        "type": "online",
        "episode": "francesca",
        "tags":["philosophy"]
      },
      {
        "title": "Academic Freedom",
        "author": "Conrad Russell",
        "name": "Francesca Minerva",
        "image": "./book-covers/book-francesca-2.jpg",
        "link": "https://www.goodreads.com/book/show/1301846.Academic_Freedom",
        "type": "book",
        "episode": "francesca",
        "tags":["philosophy","sociology"]
      },
      {
        "title": "The Ethics of Cryonics",
        "author": "Francesca Minerva",
        "name": "Francesca Minerva",
        "image": "./book-covers/book-francesca-3.jpg",
        "link": "https://www.goodreads.com/book/show/40409140-the-ethics-of-cryonics",
        "type": "book",
        "episode": "francesca",
        "tags":["philosophy"]
      },
      {
        "title": "Euthanasia and cryothanasia",
        "author": "Francesca Minerva and Anders Sandberg",
        "name": "Francesca Minerva",
        "image": "./book-covers/book-francesca-4.jpg",
        "link": "https://philpapers.org/rec/MINEAC",
        "type": "paper",
        "episode": "francesca",
        "tags":["philosophy"]
      },
      {
        "title": "Survival of the Prettiest",
        "author": "Nancy L. Etcoff",
        "name": "Francesca Minerva",
        "image": "./book-covers/book-francesca-5.jpg",
        "link": "https://www.goodreads.com/book/show/106860.Survival_of_the_Prettiest",
        "type": "book",
        "episode": "francesca",
        "tags":["sociology"]
      },
      {
        "title": "The Beauty Bias: The Injustice of Appearance in Life and Law",
        "author": "Deborah L. Rhode",
        "name": "Francesca Minerva",
        "image": "./book-covers/book-francesca-6.jpg",
        "link": "https://www.goodreads.com/book/show/8072734-the-beauty-bias",
        "type": "book",
        "episode": "francesca",
        "tags":["sociology","psychology"]
      },
      {
        "title": "Beauty Pays: Why Attractive People Are More Successful",
        "author": "Daniel S. Hamermesh",
        "name": "Francesca Minerva",
        "image": "./book-covers/book-francesca-7.jpg",
        "link": "https://www.goodreads.com/book/show/11505511-beauty-pays",
        "type": "book",
        "episode": "francesca",
        "tags":["sociology"]
      },
      {
        "title": "Black Reconstruction in America 1860-1880",
        "author": "W.E.B. Du Bois",
        "name": "Jeffrey Sachs",
        "image": "./book-covers/book-sachs-1.jpg",
        "link": "https://www.goodreads.com/book/show/184612.Black_Reconstruction_in_America_1860_1880",
        "type": "book",
        "episode": "sachs",
        "tags":["economics","history"]
      },
      {
        "title": "Essays in Persuasion",
        "author": "John Maynard Keynes",
        "name": "Jeffrey Sachs",
        "image": "./book-covers/book-sachs-2.jpg",
        "link": "https://www.goodreads.com/book/show/368291.Essays_in_Persuasion",
        "type": "book",
        "episode": "sachs",
        "tags":["philosophy"]
      },
      {
        "title": "Nichomachean Ethics",
        "author": "Aristotle",
        "name": "Jeffrey Sachs",
        "image": "./book-covers/book-sachs-3.jpg",
        "link": "https://www.goodreads.com/book/show/229349.Nichomachean_Ethics",
        "type": "book",
        "episode": "sachs",
        "tags":["economics"]
      },
      {
        "title": "Intelligent Life in the Universe",
        "author": "Carl Sagan and Iosif Samuilovich Shklovsky",
        "name": "Anders Sandberg",
        "image": "./book-covers/book-anders-1.jpg",
        "link": "https://www.goodreads.com/book/show/275567.Intelligent_Life_in_the_Universe",
        "type": "book",
        "episode": "anders",
        "tags":["science"]
      },
      {
        "title": "The Drake Equation",
        "author": "Douglas A. Vakoch (ed.)",
        "name": "Anders Sandberg",
        "image": "./book-covers/book-anders-2.jpg",
        "link": "https://www.cambridge.org/core/books/drake-equation/D253393BB6E6506F328A30D8293CFAC7",
        "type": "book",
        "episode": "anders",
        "tags":["science"]
      },
      {
        "title": "Last and First Men/Star Maker",
        "author": "Olaf Stapledon",
        "name": "Anders Sandberg",
        "image": "./book-covers/book-anders-3.jpg",
        "link": "https://www.goodreads.com/book/show/564325.Last_and_First_Men_Star_Maker",
        "type": "book",
        "episode": "anders",
        "tags":["fiction"]
      },
      {
        "title": "Great Mambo Chicken And The Transhuman Condition",
        "author": "Ed Regis",
        "name": "Anders Sandberg",
        "image": "./book-covers/book-anders-4.jpg",
        "link": "https://www.goodreads.com/book/show/665412.Great_Mambo_Chicken_And_The_Transhuman_Condition",
        "type": "book",
        "episode": "anders",
        "tags":["history","selfImprovement"]
      },
      {
        "title": "Mind Children: The Future of Robot and Human Intelligence",
        "author": "Hans Moravec",
        "name": "Anders Sandberg",
        "image": "./book-covers/book-anders-5.jpg",
        "link": "https://www.goodreads.com/book/show/648195.Mind_Children",
        "type": "book",
        "episode": "anders",
        "tags":["science", "philosophy"]
      },
      {
        "title": "Key Ideas Series",
        "author": "80,000 Hours",
        "name": "Ben Todd",
        "image": "./book-covers/book-ben-2.jpg",
        "link": "https://80000hours.org/key-ideas/",
        "type": "book",
        "episode": "ben",
        "tags":["selfImprovement","philosophy"]
      },
      {
        "title": "Career Planning Guide",
        "author": "80,000 Hours",
        "name": "Ben Todd",
        "image": "./book-covers/book-ben-1.jpg",
        "link": "https://80000hours.org/career-planning/",
        "type": "book",
        "episode": "ben",
        "tags":["selfImprovement"]
      },
      {
        "title": "Alex Berger on improving global health",
        "author": "80,000 Hours",
        "name": "Ben Todd",
        "image": "./book-covers/book-ben-3.jpg",
        "link": "https://80000hours.org/podcast/episodes/alexander-berger-improving-global-health-wellbeing-clear-direct-ways/",
        "type": "audio",
        "episode": "ben",
        "tags":["philosophy","economics"]
      },
      {
        "title": "Ben's futuristic Spotify playlist",
        "author": "Various artists",
        "name": "Ben Todd",
        "image": "./book-covers/book-ben-4.jpg",
        "link": "https://open.spotify.com/playlist/5yKyxzF12kh9fk6MNi8vYT?si=44ba1d729ca946f8",
        "type": "book",
        "episode": "ben",
        "tags":["science"]
      },
      {
        "title": "The Problem of Political Authority",
        "author": "Michael Huemer",
        "name": "Bryan Caplan",
        "image": "./book-covers/book-bryan-1.jpg",
        "link": "https://www.goodreads.com/book/show/15794037-the-problem-of-political-authority",
        "type": "book",
        "episode": "bryan",
        "tags":["philosophy"]
      },
      {
        "title": "How to Win Friends and Influence People",
        "author": "Dale Carnegie",
        "name": "Bryan Caplan",
        "image": "./book-covers/book-bryan-2.jpg",
        "link": "https://www.goodreads.com/book/show/4865.How_to_Win_Friends_and_Influence_People",
        "type": "book",
        "episode": "bryan",
        "tags":["psychology","selfImprovement"]
      },
      {
        "title": "The Disaster Artist",
        "author": "Dir. James Franco",
        "name": "Bryan Caplan",
        "image": "./book-covers/book-bryan-3.jpg",
        "link": "https://letterboxd.com/film/the-disaster-artist/",
        "type": "book",
        "episode": "bryan",
        "tags":["people","fiction"]
      },
      {
        "title": "Hairspray",
        "author": "",
        "name": "Bryan Caplan",
        "image": "./book-covers/book-bryan-4.jpg",
        "link": "https://en.wikipedia.org/wiki/Hairspray_(musical)",
        "type": "film",
        "episode": "bryan",
        "tags":["fiction"]
      },
      {
        "title": "The Collapse of Complex Societies",
        "author": "Joseph Tainter",
        "name": "Gillian Hadfield",
        "image": "./book-covers/book-gillian-1.jpg",
        "link": "https://www.goodreads.com/book/show/8211037-the-collapse-of-complex-societies",
        "type": "book",
        "episode": "gillian",
        "tags":["economics","history"]
      },
      {
        "title": "The Grammar of Society",
        "author": "Cristina Bicchieri",
        "name": "Gillian Hadfield",
        "image": "./book-covers/book-gillian-2.jpg",
        "link": "https://www.goodreads.com/book/show/398264.The_Grammar_of_Society",
        "type": "book",
        "episode": "gillian",
        "tags":["sociology","economics"]
      },
      {
        "title": "Klara and the Sun",
        "author": "Kazuo Ishiguro",
        "name": "Gillian Hadfield",
        "image": "./book-covers/book-gillian-3.jpg",
        "link": "https://www.goodreads.com/book/show/54120408-klara-and-the-sun",
        "type": "book",
        "episode": "gillian",
        "tags":["fiction"]
      },
      {
        "title": "The Vulnerable World Hypothesis",
        "author": "Nick Bostrom",
        "name": "Christoph Winter",
        "image": "./book-covers/book-christoph-1.jpg",
        "link": "https://www.nickbostrom.com/papers/vulnerable.pdf",
        "type": "paper",
        "episode": "christoph",
        "tags":["philosophy"]
      },
      {
        "title": "The Weirdest People in the World",
        "author": "Joseph Henrich",
        "name": "Christoph Winter",
        "image": "./book-covers/book-christoph-2.jpg",
        "link": "https://www.goodreads.com/en/book/show/51710349",
        "type": "book",
        "episode": "christoph",
        "tags":["psychology","sociology","history"]
      },
      {
        "title": "The Case for Strong Longtermism",
        "author": "Will MacAskill and Hilary Greaves",
        "name": "Christoph Winter",
        "image": "./book-covers/book-christoph-3.jpg",
        "link": "https://globalprioritiesinstitute.org/hilary-greaves-william-macaskill-the-case-for-strong-longtermism-2/",
        "type": "paper",
        "episode": "christoph",
        "tags":["philosophy"]
      },
      {
        "title": "Soul Dust",
        "author": "Nicholas Humphrey",
        "name": "Keith Frankish",
        "image": "./book-covers/book-keith-3.jpg",
        "link": "https://www.goodreads.com/book/show/9751599-soul-dust",
        "type": "book",
        "episode": "keith",
        "tags":["philosophy"]
      },
      {
        "title": "Consciousness Explained",
        "author": "Daniel Dennett",
        "name": "Keith Frankish",
        "image": "./book-covers/book-keith-1.jpg",
        "link": "https://www.goodreads.com/book/show/2069.Consciousness_Explained",
        "type": "book",
        "episode": "keith",
        "tags":["philosophy"]
      },
      {
        "title": "Sweet Dreams",
        "author": "Daniel Dennett",
        "name": "Keith Frankish",
        "image": "./book-covers/book-keith-2.jpg",
        "link": "https://www.goodreads.com/book/show/2070.Sweet_Dreams",
        "type": "book",
        "episode": "keith",
        "tags":["philosophy"]
      },
      {
        "title": "A course on illusionism",
        "author": "Keith Frankish",
        "name": "Keith Frankish",
        "image": "./book-covers/book-keith-5.jpg",
        "link": "https://www.youtube.com/playlist?list=PLhgvALi0LQGXIA7cKNmGNTiQ7dpS-7dLw",
        "type": "film",
        "episode": "keith",
        "tags":["philosophy"]
      },
      {
        "title": "The Conscious Mind",
        "author": "David Chalmers",
        "name": "Keith Frankish",
        "image": "./book-covers/book-keith-6.jpg",
        "link": "https://www.goodreads.com/en/book/show/144960",
        "type": "book",
        "episode": "keith",
        "tags":["philosophy"]
      }
   ]